SEQNUM ,COMMIT ,DELTAFILES ,DELTALOC ,INCREMENTAL ,PIPELINE_CONSTRUCT ,POKE ,RUN ,TOTALLOC ,analyze-collect-collect ,analyze-collect-diff ,analyze-collect-messages ,analyze-collect-setup ,analyze-collect-total ,analyze-parse ,analyze-task-evaluate ,analyze-task-evaluate-concat-reads ,webdsl-analyze-multiple-full-analysis ,webdsl-analyze-multiple-index-commit ,webdsl-analyze-multiple-task-commit ,webdsl-analyze-total 
0 ,cf0b7c0f0e13d8dffcffef07b694e61418d69bcc ,4 ,3139 ,true ,1 ,5997 ,6012 ,3139 ,2450 ,20 ,0 ,0 ,2470 ,1050 ,1060 ,130 ,4760 ,40 ,500 ,5300 
1 ,31413f79ee31240521c7cb097969cb8579ef91c2 ,11 ,224 ,true ,1 ,1816 ,1819 ,3336 ,290 ,100 ,10 ,20 ,420 ,380 ,100 ,0 ,900 ,60 ,750 ,1710 
2 ,e641fdccb44ba9bdc2d4947034e78d242c613463 ,9 ,196 ,true ,1 ,1711 ,1716 ,3487 ,250 ,80 ,0 ,40 ,370 ,380 ,100 ,0 ,860 ,60 ,690 ,1610 
3 ,9c5783264c8cf0b346590ec702b028e7b79ca6ad ,4 ,219 ,true ,1 ,1754 ,1759 ,3554 ,170 ,40 ,0 ,20 ,230 ,390 ,30 ,0 ,920 ,60 ,680 ,1660 
4 ,8d80b914719ea90098ca52159a39848765807022 ,1 ,4 ,true ,1 ,1181 ,1182 ,3554 ,10 ,10 ,0 ,10 ,30 ,340 ,0 ,0 ,380 ,50 ,700 ,1130 
5 ,0918d3bbce7820c545cd106a1f86c7efc3864efa ,6 ,115 ,true ,1 ,1695 ,1700 ,3629 ,250 ,40 ,0 ,40 ,330 ,390 ,70 ,0 ,820 ,60 ,710 ,1590 
6 ,56e8b964144d73538edb9e5f2ac5310a857b65e4 ,10 ,237 ,true ,1 ,2317 ,2324 ,3754 ,460 ,90 ,0 ,40 ,590 ,430 ,190 ,0 ,1340 ,70 ,760 ,2170 
7 ,aa8cb2c13ed35f406b26b3f4712efb3d4e06634c ,4 ,56 ,true ,1 ,1863 ,1868 ,3799 ,350 ,30 ,0 ,20 ,400 ,400 ,70 ,0 ,930 ,70 ,770 ,1770 
8 ,6b01e078d2d6b493b32e52ec9da91e07231cc24f ,3 ,56 ,true ,0 ,1621 ,1624 ,3823 ,210 ,40 ,0 ,30 ,280 ,370 ,40 ,0 ,740 ,60 ,760 ,1560 
9 ,ff775fdabef86c7d1ca37b1cc0496f25396be14e ,2 ,28 ,true ,1 ,1918 ,1923 ,3843 ,250 ,20 ,0 ,10 ,280 ,400 ,20 ,0 ,1010 ,60 ,770 ,1840 
10 ,b5703a6f66b5d4d449537695974a57c6b7ac23ff ,1 ,10 ,true ,1 ,1508 ,1511 ,3849 ,80 ,10 ,0 ,10 ,100 ,350 ,0 ,0 ,640 ,70 ,760 ,1470 
11 ,d902abd5e2a12be4231054067003f7edd9206d79 ,4 ,35 ,true ,1 ,1753 ,1757 ,3864 ,230 ,50 ,0 ,10 ,290 ,400 ,20 ,0 ,810 ,60 ,780 ,1650 
12 ,c7307371f29df6dd41c7c95eb4d7535738899617 ,5 ,37 ,true ,0 ,2126 ,2133 ,3877 ,280 ,60 ,10 ,30 ,390 ,430 ,20 ,0 ,1150 ,70 ,770 ,1990 
13 ,6b1eabad4617bc02cfa0f03bd8d4ee4f5aeb3ee1 ,3 ,46 ,true ,1 ,1891 ,1896 ,3884 ,230 ,40 ,0 ,10 ,280 ,390 ,40 ,0 ,830 ,70 ,890 ,1790 
14 ,dcbea8d0bc8197433725f61174b827a269a4e078 ,4 ,49 ,true ,1 ,2167 ,2178 ,3919 ,330 ,30 ,0 ,20 ,380 ,420 ,10 ,0 ,1230 ,60 ,770 ,2060 
15 ,9c31836097db7301ab3eb1272f1c764dc9c5f286 ,1 ,2 ,true ,1 ,1552 ,1557 ,3919 ,150 ,10 ,0 ,10 ,170 ,370 ,0 ,0 ,680 ,60 ,760 ,1500 
16 ,95c5b11bfff2681bc9aec8a53316961fdda8d1b2 ,4 ,8 ,true ,1 ,1853 ,1859 ,3919 ,190 ,40 ,0 ,20 ,250 ,390 ,0 ,0 ,900 ,70 ,800 ,1770 
17 ,6a530f615bdaf7c092ce7c4297090f9f8926efb1 ,2 ,28 ,true ,1 ,1691 ,1695 ,3927 ,220 ,20 ,10 ,10 ,260 ,390 ,20 ,0 ,800 ,70 ,760 ,1630 
18 ,555dfe85a0acb5d82581c2caca39d029b1e9e243 ,2 ,12 ,true ,1 ,1882 ,1906 ,3931 ,220 ,20 ,0 ,20 ,260 ,390 ,0 ,0 ,970 ,60 ,760 ,1790 
19 ,0c4500358f14a4c0b9a144ed0deed4973ebd8578 ,5 ,19 ,true ,2 ,2068 ,2077 ,3944 ,260 ,50 ,0 ,30 ,340 ,430 ,0 ,0 ,1130 ,60 ,750 ,1940 
20 ,85de43e323929597381c5bcf5532b143860d7fa6 ,3 ,10 ,true ,0 ,2423 ,2431 ,3946 ,310 ,30 ,0 ,30 ,370 ,420 ,20 ,0 ,1180 ,70 ,950 ,2200 
21 ,1e22787f2583126443aec575d43be81224ad8d59 ,2 ,59 ,true ,1 ,1754 ,1759 ,3995 ,210 ,20 ,0 ,10 ,240 ,400 ,10 ,0 ,800 ,70 ,800 ,1670 
22 ,4bcc52ca0d411aedd78be02ba3fbc7236eabaece ,3 ,140 ,true ,1 ,1889 ,1894 ,3967 ,210 ,30 ,0 ,20 ,260 ,390 ,140 ,0 ,940 ,70 ,810 ,1820 
23 ,df32fc52b81c4d1d76e3ce2deaa2b52bf0c85333 ,9 ,79 ,true ,1 ,3104 ,3116 ,4036 ,750 ,120 ,10 ,70 ,950 ,510 ,90 ,0 ,2030 ,60 ,820 ,2910 
24 ,bf526be04119aeece0a9e63ba316d4016ec5966d ,4 ,30 ,true ,1 ,2471 ,2480 ,4046 ,450 ,50 ,0 ,40 ,540 ,450 ,30 ,0 ,1460 ,70 ,820 ,2350 
25 ,e50e471d2539bbccbd050b05bb589760466355ce ,3 ,22 ,true ,1 ,2012 ,2017 ,4064 ,180 ,40 ,0 ,30 ,250 ,400 ,160 ,0 ,1020 ,80 ,830 ,1930 
26 ,9f2cc62c3aa3ccf76ed45da452f389b1777094ea ,6 ,206 ,true ,1 ,2522 ,2528 ,4158 ,540 ,80 ,0 ,40 ,660 ,440 ,150 ,0 ,1460 ,70 ,850 ,2380 
27 ,bfddc50e72680f4d7da3139651d78004da16ee04 ,3 ,13 ,true ,1 ,1616 ,1618 ,4161 ,150 ,60 ,0 ,10 ,220 ,360 ,20 ,0 ,620 ,70 ,860 ,1550 
28 ,1db0d646431b54b68a4ac38508e1770c1393f94d ,3 ,37 ,true ,1 ,2303 ,2309 ,4190 ,330 ,40 ,0 ,10 ,380 ,410 ,190 ,0 ,1280 ,70 ,850 ,2200 
29 ,a5fb1afd87d237f51c8e42deb1e5925ca918a10c ,3 ,58 ,true ,1 ,2253 ,2260 ,4205 ,390 ,40 ,0 ,20 ,450 ,430 ,100 ,0 ,1240 ,70 ,840 ,2150 
30 ,b7e17e28281d80177681eb05151a775addf35d57 ,6 ,189 ,true ,1 ,2961 ,2972 ,4336 ,610 ,70 ,10 ,40 ,730 ,460 ,250 ,0 ,1630 ,80 ,1050 ,2760 
31 ,fad6a4c8b745d19ada35afe9d0c46df6f0481bf6 ,3 ,33 ,true ,0 ,1687 ,1690 ,4343 ,180 ,50 ,0 ,20 ,250 ,370 ,10 ,0 ,630 ,80 ,910 ,1620 
32 ,c0e5d3f5feb792382847686419673a0864ac2ccd ,2 ,18 ,true ,1 ,2073 ,2081 ,4347 ,300 ,20 ,0 ,20 ,340 ,410 ,0 ,0 ,990 ,70 ,920 ,1980 
33 ,01b799f9ab802236bec24f19a1d85cd5ae7be6bd ,2 ,72 ,true ,1 ,1865 ,1870 ,4381 ,230 ,30 ,0 ,20 ,280 ,370 ,60 ,0 ,790 ,80 ,930 ,1800 
34 ,3b5c002c804f52725016b75589bcc8317d004d51 ,3 ,42 ,true ,1 ,2162 ,2168 ,4379 ,310 ,30 ,0 ,30 ,380 ,420 ,20 ,0 ,1070 ,80 ,920 ,2070 
35 ,41d0b7106b0ecf9954722c55fa8cac671acf20cd ,1 ,21 ,true ,1 ,1418 ,1419 ,4378 ,10 ,10 ,0 ,10 ,30 ,350 ,0 ,0 ,380 ,70 ,930 ,1380 
36 ,22f47d749b99d789a9f745ab91fe849af420a689 ,2 ,15 ,true ,1 ,1563 ,1567 ,4377 ,60 ,30 ,0 ,20 ,110 ,390 ,10 ,0 ,520 ,70 ,900 ,1490 
37 ,66a85f563c4291ea6985751696a83584d700078e ,4 ,96 ,true ,1 ,2473 ,2480 ,4460 ,490 ,40 ,0 ,30 ,560 ,510 ,80 ,0 ,1360 ,80 ,910 ,2350 
38 ,3a63c46e34556b6bee5dddbd9d26a15abc349453 ,6 ,193 ,true ,1 ,3310 ,3323 ,4549 ,870 ,60 ,10 ,50 ,990 ,510 ,160 ,0 ,2050 ,80 ,950 ,3080 
39 ,873197030ddc5d3ed1170db7ac158f766dba824c ,7 ,62 ,true ,1 ,2966 ,2980 ,4543 ,730 ,70 ,20 ,40 ,860 ,510 ,70 ,0 ,1720 ,80 ,950 ,2750 
40 ,07d3a4865f90cac26d3430982ace91bc38d9d705 ,5 ,45 ,true ,1 ,3158 ,3171 ,4574 ,640 ,60 ,0 ,40 ,740 ,490 ,230 ,0 ,1920 ,90 ,960 ,2970 
41 ,e4fc91e71f4400b8459dca0725efb8c9738668be ,5 ,63 ,true ,1 ,3293 ,3307 ,4615 ,840 ,110 ,0 ,40 ,990 ,520 ,120 ,0 ,1960 ,80 ,980 ,3020 
42 ,b54ccaa481c8e31871382b66085ab1be85389b65 ,7 ,56 ,true ,1 ,3577 ,3593 ,4615 ,860 ,130 ,0 ,80 ,1070 ,530 ,20 ,0 ,2180 ,80 ,1010 ,3270 
43 ,43b285dd55598698127c741af1ac17b6211b0120 ,2 ,6 ,true ,1 ,2395 ,2402 ,4615 ,310 ,30 ,0 ,10 ,350 ,410 ,10 ,0 ,1060 ,110 ,1140 ,2310 
44 ,34eb77738e208631cb0ba0a44cbc6015da1485d6 ,4 ,22 ,true ,1 ,3116 ,3129 ,4615 ,580 ,60 ,0 ,30 ,670 ,510 ,30 ,0 ,1750 ,80 ,1070 ,2900 
45 ,40ef9362d2dc79ffb6a44b7d23575f9e840d5a14 ,10 ,251 ,true ,1 ,4587 ,4622 ,4714 ,1310 ,180 ,0 ,70 ,1560 ,610 ,460 ,0 ,2920 ,90 ,1270 ,4280 
46 ,c2b706197591c289fdfe4adde51c8ac21b8a73d1 ,5 ,75 ,true ,1 ,2862 ,2871 ,4742 ,430 ,60 ,0 ,30 ,520 ,470 ,210 ,0 ,1560 ,80 ,1050 ,2690 
47 ,598ba403d698ebb13cab2702d5fe24aa939c884f ,3 ,6 ,true ,1 ,2095 ,2100 ,4746 ,240 ,30 ,0 ,30 ,300 ,390 ,0 ,0 ,880 ,80 ,1030 ,1990 
48 ,09f8bc3996a4187b7f4e9812cc12d5c3a8c26968 ,9 ,133 ,true ,1 ,3642 ,3656 ,4791 ,630 ,140 ,10 ,30 ,810 ,530 ,240 ,0 ,2310 ,90 ,1020 ,3420 
49 ,0483bbe7b373c2b0b4284d1bec50fca096507c48 ,1 ,14 ,true ,1 ,1642 ,1644 ,4791 ,60 ,10 ,0 ,10 ,80 ,360 ,10 ,0 ,480 ,80 ,1040 ,1600 
50 ,7d8bdfdce8ec497028d62d3687eb8cd6e7c83ce8 ,3 ,53 ,true ,0 ,2841 ,2850 ,4838 ,520 ,50 ,0 ,20 ,590 ,430 ,70 ,0 ,1580 ,80 ,1060 ,2720 
51 ,ce21ebd0426eb5ebcdd0527c05c4f2130bbc5435 ,1 ,2 ,true ,1 ,2394 ,2401 ,4838 ,290 ,10 ,0 ,20 ,320 ,390 ,0 ,0 ,1160 ,80 ,1050 ,2290 
52 ,6b573e0199ce0831c457710dc30723028d3c4e7d ,5 ,107 ,true ,1 ,3578 ,3592 ,4845 ,730 ,80 ,0 ,60 ,870 ,520 ,30 ,0 ,2220 ,80 ,1050 ,3350 
53 ,cfe20c2a74f553864583bfd1d7fa6dfe3080d03f ,3 ,20 ,true ,1 ,3135 ,3143 ,4843 ,400 ,30 ,20 ,20 ,470 ,450 ,10 ,0 ,1430 ,90 ,1100 ,2620 
54 ,160b4919ba21b8e1340c31b7fb6e663445ecb87c ,10 ,183 ,true ,1 ,4627 ,4640 ,4983 ,1310 ,200 ,0 ,90 ,1600 ,690 ,460 ,0 ,2950 ,120 ,1320 ,4390 
55 ,82d9078292de201f8bb0e11deebf09d3a785e61e ,6 ,29 ,true ,1 ,4408 ,4423 ,4994 ,920 ,80 ,10 ,80 ,1090 ,570 ,20 ,0 ,2720 ,90 ,1320 ,4130 
56 ,e0f234348785a23a5ced50665653b844fdb27438 ,2 ,9 ,true ,1 ,2318 ,2321 ,4997 ,230 ,20 ,0 ,20 ,270 ,390 ,10 ,0 ,800 ,90 ,1360 ,2250 
57 ,348deb202364bd1e7409ccd4f24145e3b7f0edfa ,11 ,237 ,true ,1 ,4337 ,4355 ,4996 ,1090 ,190 ,10 ,80 ,1370 ,630 ,120 ,0 ,2970 ,60 ,990 ,4020 
58 ,73a69535c2359ef48dd8774272b24943e3fe5e97 ,6 ,64 ,true ,1 ,4148 ,4162 ,5032 ,980 ,90 ,0 ,70 ,1140 ,550 ,90 ,0 ,2650 ,80 ,1220 ,3950 
59 ,42fb6a7a23130bd9d2092226223e0a20df9228b4 ,2 ,6 ,true ,1 ,2891 ,2899 ,5032 ,440 ,20 ,10 ,20 ,490 ,440 ,0 ,0 ,1450 ,80 ,1210 ,2740 
60 ,691f1919511b470c27213b9c43aad17baea95ed3 ,6 ,37 ,true ,1 ,4298 ,4314 ,5041 ,970 ,80 ,0 ,70 ,1120 ,570 ,20 ,0 ,2740 ,90 ,1200 ,4030 
61 ,b082015646f903cc8c3580c3727e432445b287cf ,1 ,2 ,true ,1 ,1843 ,1845 ,5041 ,60 ,20 ,0 ,10 ,90 ,350 ,0 ,0 ,440 ,90 ,1280 ,1810 
62 ,c31a5ac01ad371648676f02ba20bafdfcdac8127 ,5 ,36 ,true ,1 ,4083 ,4097 ,5041 ,830 ,70 ,0 ,70 ,970 ,550 ,0 ,0 ,2510 ,90 ,1240 ,3840 
63 ,b00359903fbb7d186267391c96ee5b6e192a743b ,3 ,8 ,true ,1 ,4121 ,4154 ,5041 ,760 ,40 ,0 ,40 ,840 ,520 ,0 ,0 ,2380 ,90 ,1450 ,3920 
64 ,4cc708d6b15c958e071af45e5aabc667d961312c ,1 ,2 ,true ,1 ,2002 ,2004 ,5041 ,20 ,20 ,0 ,10 ,50 ,390 ,0 ,0 ,440 ,120 ,1400 ,1960 
65 ,b14eac33bae3b0d03fcd0265d1087358956a6e27 ,2 ,19 ,true ,1 ,2819 ,2826 ,5049 ,360 ,30 ,0 ,20 ,410 ,440 ,10 ,0 ,1330 ,100 ,1290 ,2720 
66 ,531fcb0c76c1bb0c99aeaecbe8fa0ba230cb153c ,3 ,44 ,true ,1 ,2819 ,2826 ,5066 ,370 ,40 ,0 ,20 ,430 ,430 ,10 ,0 ,1340 ,90 ,1280 ,2710 
67 ,8d781cd738772e2dec6325109108621479fccbf0 ,3 ,56 ,true ,1 ,2154 ,2158 ,5070 ,210 ,40 ,10 ,10 ,280 ,390 ,30 ,0 ,730 ,90 ,1270 ,2090 
68 ,43da869b93bcf19386325dd5eebbbe8398e8eebc ,2 ,10 ,true ,0 ,2050 ,2054 ,5074 ,140 ,30 ,0 ,10 ,180 ,370 ,0 ,0 ,630 ,90 ,1260 ,1980 
69 ,415299881c4d11b661bb515b63487df4701f557b ,1 ,16 ,true ,1 ,1751 ,1753 ,5078 ,20 ,10 ,0 ,10 ,40 ,340 ,0 ,0 ,390 ,80 ,1260 ,1730 
70 ,54a653e2c98528b928b5469e0a119700626f8a4d ,1 ,9 ,true ,1 ,1869 ,1872 ,5083 ,80 ,10 ,0 ,10 ,100 ,350 ,10 ,0 ,490 ,80 ,1260 ,1830 
71 ,6e8c3fc23e7d9d3100dbea2d5f26662ab08bb8cc ,1 ,33 ,true ,1 ,2670 ,2676 ,5088 ,320 ,10 ,0 ,20 ,350 ,410 ,0 ,0 ,1230 ,90 ,1260 ,2580 
72 ,33dd020e5f42be993e562eb6d9c2177485fc87a7 ,2 ,33 ,true ,1 ,2039 ,2042 ,5089 ,140 ,30 ,0 ,20 ,190 ,360 ,20 ,0 ,620 ,90 ,1270 ,1980 
73 ,46af5c22979f96bf919a165f21a35faa8bfebb85 ,1 ,29 ,true ,0 ,2203 ,2206 ,5110 ,250 ,10 ,10 ,10 ,280 ,420 ,0 ,0 ,840 ,80 ,1210 ,2130 
74 ,38bad00491735c78dea3134b87fa60a31cd56577 ,2 ,54 ,true ,1 ,2652 ,2658 ,5120 ,270 ,20 ,0 ,20 ,310 ,400 ,170 ,0 ,1260 ,90 ,1210 ,2560 
75 ,d64efa978a54cc33f03590b7994e436e875a0239 ,9 ,189 ,true ,1 ,4662 ,4677 ,5240 ,1320 ,160 ,0 ,70 ,1550 ,620 ,370 ,0 ,3300 ,70 ,1010 ,4400 
76 ,1c5f7cbba8b55df3f0155fb0cf54c8cabdf9a2f4 ,7 ,114 ,true ,1 ,4586 ,4603 ,5298 ,1230 ,120 ,20 ,60 ,1430 ,620 ,160 ,0 ,2930 ,90 ,1240 ,4280 
77 ,7959b95b26aa93d62f1e6ef46154a59e848257e7 ,5 ,130 ,true ,1 ,3416 ,3425 ,5372 ,590 ,110 ,0 ,60 ,760 ,440 ,90 ,0 ,1860 ,90 ,1340 ,3290 
78 ,4a2babc50d8093e766de154ca44ef66c36a0a3cd ,5 ,26 ,true ,1 ,3339 ,3348 ,5378 ,550 ,70 ,10 ,40 ,670 ,450 ,30 ,0 ,1750 ,90 ,1340 ,3180 
79 ,40a6b2c94df069aa9a2e06d2520bf80ad0c83965 ,2 ,4 ,true ,1 ,3418 ,3428 ,5378 ,580 ,30 ,0 ,30 ,640 ,470 ,0 ,0 ,1890 ,100 ,1260 ,3250 
80 ,66816d6c928f8747e7fdcc8fd7c7b3711d37bd29 ,9 ,201 ,true ,1 ,4816 ,4856 ,5491 ,990 ,170 ,0 ,70 ,1230 ,600 ,60 ,0 ,2870 ,100 ,1600 ,4570 
81 ,8094e056e91fc13a06eb37404b408cd9324c2732 ,7 ,113 ,true ,1 ,4555 ,4572 ,5516 ,1380 ,140 ,10 ,90 ,1620 ,640 ,180 ,0 ,3190 ,70 ,1070 ,4330 
82 ,c8b5ab7f79ff161af2bbc4293bcbbccfac04ab01 ,2 ,26 ,true ,1 ,2688 ,2694 ,5514 ,360 ,30 ,10 ,30 ,430 ,410 ,10 ,0 ,1170 ,90 ,1310 ,2570 
83 ,6d17349e00f804b5b43c84e796e3cd3cf0ad6195 ,1 ,2 ,true ,1 ,2345 ,2348 ,5516 ,230 ,20 ,0 ,10 ,260 ,380 ,0 ,0 ,880 ,90 ,1300 ,2270 
84 ,bfcc287f2548175ba01c5116b9581058367df97b ,3 ,58 ,true ,1 ,4097 ,4110 ,5532 ,980 ,70 ,10 ,30 ,1090 ,570 ,100 ,0 ,2500 ,90 ,1270 ,3860 
85 ,70a300d187d91ccd7500b898c4a4e2f31cbd43c0 ,15 ,1102 ,true ,1 ,5352 ,5368 ,5561 ,1590 ,360 ,10 ,140 ,2100 ,760 ,580 ,20 ,3790 ,70 ,1210 ,5090 
86 ,7947c7bf68ca4368613f4f0e8a10695a8b1bdb40 ,3 ,93 ,true ,1 ,2102 ,2123 ,5615 ,170 ,60 ,0 ,10 ,240 ,360 ,40 ,0 ,650 ,90 ,1320 ,2060 
87 ,49a36f20893c2047812bf14a608277dcfc2bd23f ,8 ,133 ,true ,1 ,4114 ,4127 ,5640 ,880 ,160 ,10 ,80 ,1130 ,550 ,80 ,0 ,2550 ,90 ,1220 ,3860 
88 ,07edd878318ff693028d9140f971086e1e2b903d ,2 ,39 ,true ,1 ,2003 ,2005 ,5655 ,60 ,40 ,0 ,0 ,100 ,370 ,10 ,0 ,480 ,100 ,1370 ,1950 
89 ,aaf1d4f42ed6034681ede1040422158cea0fd0b2 ,5 ,37 ,true ,1 ,3683 ,3696 ,5658 ,580 ,100 ,0 ,30 ,710 ,510 ,0 ,0 ,2020 ,100 ,1370 ,3490 
90 ,f56f69e87c2a9e61b3e5652e18ba87ff30706079 ,2 ,58 ,true ,1 ,3060 ,3066 ,5708 ,330 ,30 ,0 ,20 ,380 ,430 ,40 ,0 ,1270 ,90 ,1590 ,2950 
91 ,8648a2d37c6de0cbe8ca94a35ff8dad475f5e913 ,2 ,6 ,true ,1 ,2984 ,2988 ,5712 ,350 ,50 ,0 ,40 ,440 ,480 ,0 ,0 ,1230 ,100 ,1540 ,2870 
92 ,d11fcfdbc8b281e35a37f40bc8e1a9c06d1d57a7 ,5 ,39 ,true ,1 ,3640 ,3653 ,5715 ,650 ,70 ,10 ,60 ,790 ,500 ,60 ,0 ,1970 ,90 ,1370 ,3430 
93 ,defcedae6544f974f27930e815845751c9f2354c ,1 ,15 ,true ,1 ,2372 ,2377 ,5720 ,220 ,20 ,0 ,10 ,250 ,380 ,10 ,0 ,860 ,100 ,1340 ,2300 
94 ,6546923b60cdabdc1674a761c91ae074d3e0c336 ,4 ,67 ,true ,18 ,3377 ,3417 ,5752 ,520 ,60 ,0 ,50 ,630 ,560 ,80 ,0 ,1740 ,100 ,1410 ,3250 
95 ,678b562dcc207eca3acbf57ef8c8ebc1e5bf51a1 ,5 ,109 ,true ,1 ,3224 ,3232 ,5781 ,480 ,110 ,0 ,60 ,650 ,510 ,240 ,0 ,1580 ,90 ,1430 ,3100 
96 ,8f7165cb76406b4e0484999cf36e5e40aee53c24 ,14 ,78 ,true ,1 ,5119 ,5153 ,5797 ,1080 ,280 ,0 ,170 ,1530 ,670 ,10 ,0 ,3240 ,100 ,1420 ,4760 
97 ,a6b254ceb03409751782ee3b5456ccda3a601388 ,12 ,100 ,true ,1 ,4692 ,4705 ,5837 ,1240 ,230 ,0 ,130 ,1600 ,660 ,170 ,0 ,3080 ,80 ,1170 ,4330 
98 ,b2c28684885c101e81981c3da75d7605ce7f28a8 ,4 ,14 ,true ,1 ,3373 ,3380 ,5843 ,450 ,80 ,0 ,40 ,570 ,460 ,0 ,0 ,1670 ,100 ,1470 ,3240 
99 ,7824533180bbdc0c41faa1bed5643cfd20e25725 ,1 ,2 ,true ,1 ,2739 ,2746 ,5843 ,280 ,20 ,0 ,10 ,310 ,400 ,0 ,0 ,1150 ,100 ,1410 ,2660 
100 ,b538bbdcd18f72b926042257c5527f17b0684fb2 ,1 ,23 ,true ,1 ,2787 ,2793 ,5842 ,280 ,20 ,0 ,20 ,320 ,400 ,10 ,0 ,1170 ,100 ,1440 ,2710 
101 ,6bbe87be8915849d4283ef521216b828b197b353 ,7 ,94 ,true ,0 ,4204 ,4213 ,5904 ,960 ,150 ,0 ,70 ,1190 ,520 ,180 ,0 ,2530 ,90 ,1430 ,4050 
102 ,12d9b2482bc0f275f01e35674514002496872f89 ,11 ,103 ,true ,1 ,3941 ,3952 ,5928 ,690 ,220 ,0 ,110 ,1030 ,540 ,60 ,0 ,2040 ,110 ,1470 ,3620 
103 ,6a647c62db431283ae87e31f96ff73ecdd2b66e9 ,4 ,24 ,true ,1 ,2294 ,2298 ,5938 ,180 ,80 ,0 ,40 ,300 ,380 ,0 ,0 ,690 ,100 ,1440 ,2230 
104 ,9dcf603088d46d4b2a70aba1b07e43446f4692e9 ,1 ,4 ,true ,1 ,2020 ,2023 ,5938 ,70 ,20 ,0 ,10 ,100 ,350 ,0 ,0 ,450 ,100 ,1440 ,1990 
105 ,2f22a4faf343c6d25be902d78ebf2af0b003162c ,3 ,27 ,true ,1 ,3565 ,3570 ,5965 ,450 ,70 ,10 ,30 ,560 ,430 ,240 ,0 ,1820 ,100 ,1530 ,3450 
106 ,0872d40a684db459bed548b29f91571c109ecd22 ,4 ,33 ,true ,1 ,2335 ,2337 ,5984 ,200 ,80 ,0 ,30 ,310 ,360 ,40 ,0 ,730 ,100 ,1450 ,2280 
107 ,39f9e3122eeb5b9ecbc5c7f85c56b11d8060416e ,3 ,19 ,true ,1 ,3233 ,3238 ,5997 ,370 ,60 ,10 ,40 ,480 ,420 ,0 ,0 ,1540 ,100 ,1470 ,3110 
108 ,97ea6dec30cf7592ee29e2f6754eaece7ad2a4ad ,3 ,67 ,true ,1 ,3520 ,3530 ,5998 ,530 ,50 ,10 ,50 ,640 ,480 ,0 ,0 ,1770 ,100 ,1480 ,3350 
109 ,4a3c22834486eb7a48c3fd6948daff124ac51aea ,1 ,6 ,true ,1 ,2043 ,2044 ,5998 ,20 ,20 ,0 ,10 ,50 ,350 ,0 ,0 ,400 ,100 ,1520 ,2020 
110 ,e5d30b501669de1e161f22db216fe5e25a02ff6c ,1 ,1 ,true ,1 ,2474 ,2479 ,5999 ,170 ,20 ,0 ,10 ,200 ,380 ,0 ,0 ,780 ,110 ,1510 ,2400 
111 ,2a698c6b4df2820998d64b05ec312c6c4c065ccf ,1 ,2 ,true ,1 ,1997 ,1999 ,5999 ,20 ,20 ,0 ,10 ,50 ,330 ,0 ,0 ,380 ,100 ,1480 ,1960 
112 ,37db91f5fde103ff203860caf717c1d3b24d3280 ,2 ,13 ,true ,2 ,2894 ,2902 ,6010 ,340 ,40 ,0 ,30 ,410 ,410 ,30 ,0 ,1220 ,100 ,1470 ,2790 
113 ,090eff85a3f419e4e096e381e8ec973332067255 ,3 ,9 ,true ,1 ,3063 ,3071 ,6017 ,390 ,60 ,0 ,40 ,490 ,440 ,10 ,0 ,1350 ,100 ,1480 ,2930 
114 ,d8ca59fcb8cbe13f70e21a980914a900b35bdc9e ,1 ,3 ,true ,1 ,2193 ,2197 ,6014 ,70 ,20 ,0 ,10 ,100 ,340 ,0 ,0 ,520 ,100 ,1510 ,2130 
115 ,3e4e336b7ef8798c3281c50bd03f708f4ef72c18 ,5 ,30 ,true ,1 ,3516 ,3525 ,6022 ,550 ,100 ,0 ,40 ,690 ,520 ,30 ,0 ,1800 ,90 ,1450 ,3340 
116 ,ba5812e7cec073f2798f070c22d884d5cecf6b4b ,3 ,31 ,true ,1 ,3149 ,3153 ,6042 ,390 ,40 ,0 ,30 ,460 ,410 ,60 ,0 ,1520 ,100 ,1430 ,3050 
117 ,3153c7f44d611af2bcc28060b5d4aeb8fe0fbd6e ,2 ,10 ,true ,1 ,2044 ,2046 ,6042 ,50 ,40 ,0 ,20 ,110 ,350 ,0 ,0 ,460 ,100 ,1420 ,1980 
118 ,203f61024ae0980ddf8419f3174fbed3edc4dcd1 ,2 ,72 ,true ,1 ,2995 ,3000 ,6048 ,540 ,60 ,0 ,30 ,630 ,410 ,110 ,0 ,1360 ,100 ,1430 ,2890 
119 ,53b70033144dd50a02042a67294e969da470e660 ,2 ,46 ,true ,1 ,2825 ,2829 ,6062 ,370 ,50 ,0 ,30 ,450 ,430 ,70 ,0 ,1200 ,90 ,1410 ,2700 
120 ,729782fce8696b36010ef3873357121d5b9e23e6 ,1 ,8 ,true ,1 ,2892 ,2896 ,6058 ,250 ,20 ,0 ,20 ,290 ,410 ,10 ,0 ,1240 ,90 ,1460 ,2790 
121 ,36b8510244325f0354b55567d5d7cc9b04a423ec ,7 ,161 ,true ,1 ,4759 ,4787 ,6061 ,1150 ,160 ,0 ,70 ,1380 ,620 ,100 ,0 ,3120 ,100 ,1290 ,4510 
122 ,a39a8d68a3a8373bfe4f309bf30d63b08f45df3e ,5 ,134 ,true ,1 ,2815 ,2818 ,6141 ,280 ,100 ,10 ,40 ,430 ,380 ,70 ,0 ,970 ,90 ,1590 ,2650 
123 ,d3390f30786a27e4fd250840920a8bfd0424c7e0 ,1 ,6 ,true ,1 ,2462 ,2464 ,6143 ,60 ,30 ,0 ,20 ,110 ,420 ,0 ,0 ,630 ,120 ,1650 ,2400 
124 ,61d98c96f9cebd0a734ca7d1b2f5570594f1f06e ,2 ,81 ,true ,1 ,2257 ,2259 ,6149 ,110 ,40 ,0 ,10 ,170 ,360 ,0 ,0 ,630 ,100 ,1450 ,2180 
125 ,642cd55a27d2a0da695cadc3ffdf4afd84b152f3 ,2 ,4 ,true ,1 ,2256 ,2258 ,6149 ,140 ,40 ,0 ,20 ,200 ,360 ,0 ,0 ,590 ,100 ,1490 ,2180 
126 ,f19b0b5bc9712360fe6159a190d766dca0a1a855 ,3 ,32 ,true ,1 ,2514 ,2516 ,6157 ,160 ,70 ,0 ,30 ,260 ,390 ,20 ,0 ,850 ,120 ,1480 ,2450 
127 ,c0e4e0695e84ede661c62fdb2570f4fdc6993e80 ,2 ,10 ,true ,2 ,2910 ,2917 ,6149 ,370 ,40 ,0 ,30 ,440 ,420 ,0 ,0 ,1260 ,100 ,1450 ,2810 
128 ,3c916af638f6d7e44a6d39e254419a29e4e1c079 ,1 ,1 ,true ,1 ,1961 ,1964 ,6150 ,20 ,10 ,0 ,10 ,40 ,330 ,10 ,0 ,380 ,90 ,1450 ,1920 
129 ,cbd97ce26bd5da5aeea992bd91624eabd2a8750f ,1 ,16 ,true ,1 ,2032 ,2035 ,6156 ,80 ,20 ,0 ,10 ,110 ,340 ,0 ,0 ,450 ,100 ,1440 ,1990 
130 ,0a6fdb1ae2ccda0ebc48babbf7b15ffbc752f964 ,1 ,48 ,true ,1 ,2075 ,2078 ,6182 ,90 ,30 ,0 ,10 ,130 ,340 ,20 ,0 ,490 ,90 ,1460 ,2050 
131 ,3b868fa051dfb9d029d4201e90121b6ed20b3c05 ,2 ,15 ,true ,1 ,2522 ,2526 ,6197 ,310 ,40 ,10 ,20 ,380 ,400 ,40 ,0 ,890 ,100 ,1450 ,2440 
132 ,12c6278824ed8df6741acc65ac2e1a5bb65d11d2 ,3 ,60 ,true ,1 ,3035 ,3042 ,6254 ,380 ,50 ,0 ,30 ,460 ,400 ,250 ,0 ,1370 ,100 ,1470 ,2940 
133 ,16db5483a11524a2279b75b41d55f3647a5e9d84 ,4 ,42 ,true ,1 ,2633 ,2637 ,6268 ,260 ,90 ,0 ,40 ,390 ,380 ,50 ,0 ,950 ,100 ,1510 ,2560 
134 ,d77d03f245cfff550cb4a7ec229a8f0dceff876b ,4 ,53 ,true ,1 ,2973 ,2979 ,6217 ,370 ,80 ,0 ,50 ,500 ,420 ,0 ,0 ,1290 ,100 ,1480 ,2870 
135 ,100e888a1c089cab638374929bb25e1bb49535c1 ,1 ,2 ,true ,1 ,2060 ,2062 ,6217 ,70 ,20 ,0 ,10 ,100 ,360 ,10 ,0 ,470 ,100 ,1450 ,2020 
136 ,c58c84b644cc8c24ea9355fe55992c41618ad229 ,10 ,87 ,true ,1 ,5480 ,5497 ,6184 ,1140 ,190 ,10 ,100 ,1440 ,690 ,350 ,0 ,3920 ,80 ,1190 ,5190 
137 ,a9c485c6c9683684a2c32d36caa054b1aec20bc2 ,3 ,23 ,true ,1 ,2313 ,2315 ,6205 ,50 ,60 ,0 ,20 ,130 ,370 ,180 ,0 ,680 ,100 ,1460 ,2240 
138 ,9813d22710dc01b82d7336a1d34ca5189b3f3754 ,1 ,4 ,true ,1 ,2050 ,2052 ,6207 ,50 ,10 ,0 ,10 ,70 ,330 ,10 ,0 ,490 ,100 ,1420 ,2010 
139 ,9bfec9a738c9465021d95e85619f82a57f470511 ,4 ,19 ,true ,1 ,2866 ,2871 ,6212 ,360 ,70 ,0 ,40 ,470 ,420 ,40 ,0 ,1080 ,100 ,1540 ,2720 
140 ,dbbccd2b2b560bf639cd0b08c6493b82c4fe7fe3 ,1 ,2 ,true ,1 ,2155 ,2157 ,6212 ,80 ,20 ,0 ,10 ,110 ,330 ,0 ,0 ,590 ,90 ,1450 ,2130 
141 ,83306828a5b48109330df0cd98eb3d7bb1e01097 ,5 ,36 ,true ,1 ,4445 ,4457 ,6216 ,940 ,120 ,0 ,70 ,1130 ,560 ,130 ,0 ,2530 ,100 ,1560 ,4190 
142 ,26fdab6c5829dc075c0f3a11dc2156d3b5da2cbd ,2 ,18 ,true ,1 ,2356 ,2360 ,6230 ,110 ,50 ,0 ,20 ,180 ,350 ,10 ,0 ,550 ,90 ,1650 ,2290 
143 ,999cb59a2962e91dedf70b435a398544adca2441 ,1 ,16 ,true ,1 ,3237 ,3242 ,6242 ,300 ,20 ,0 ,10 ,330 ,440 ,0 ,0 ,1500 ,100 ,1510 ,3110 
144 ,6639d89732054e0708b423785b92efa6b4ff7d6c ,1 ,27 ,true ,1 ,2338 ,2341 ,6245 ,230 ,30 ,0 ,10 ,270 ,370 ,40 ,0 ,740 ,100 ,1440 ,2280 
145 ,1bb7c9a4ca44276cc9e72021d46088a8192cb71e ,2 ,17 ,true ,1 ,2502 ,2507 ,6252 ,230 ,40 ,0 ,20 ,290 ,400 ,0 ,0 ,880 ,90 ,1440 ,2410 
146 ,7216453823929d20735fdd0024766fa9feb3da99 ,1 ,8 ,true ,1 ,2110 ,2113 ,6248 ,70 ,30 ,0 ,10 ,110 ,360 ,0 ,0 ,490 ,90 ,1490 ,2070 
147 ,a9672667a583890df5c1d5197ade701e827f8ebb ,3 ,55 ,true ,1 ,2766 ,2772 ,6245 ,350 ,80 ,0 ,30 ,460 ,380 ,70 ,0 ,1130 ,90 ,1450 ,2670 
148 ,bc4b82bf45d41ee414c6293ab69bdc0d8953b18e ,3 ,12 ,true ,1 ,2355 ,2357 ,6245 ,110 ,60 ,0 ,30 ,200 ,350 ,10 ,0 ,600 ,110 ,1580 ,2290 
149 ,6bf2700cc0de92855dd8d7aae40d04981276fea2 ,1 ,10 ,true ,1 ,2250 ,2255 ,6249 ,170 ,20 ,0 ,10 ,200 ,360 ,10 ,0 ,640 ,100 ,1450 ,2190 
150 ,29386fb13be8781e9e1bb72a349af2c811e31601 ,1 ,24 ,true ,16 ,2379 ,2399 ,6259 ,230 ,20 ,0 ,20 ,270 ,370 ,50 ,0 ,760 ,100 ,1450 ,2310 
151 ,1822a3d4e0dce89ff8a55879ee77e0ef03af42b9 ,3 ,11 ,true ,1 ,2550 ,2555 ,6258 ,180 ,60 ,0 ,30 ,270 ,390 ,20 ,0 ,840 ,110 ,1520 ,2470 
152 ,a9f2451b867a948db9b376d8018499b08f7e0f40 ,4 ,138 ,true ,1 ,3540 ,3548 ,6356 ,540 ,90 ,0 ,50 ,680 ,460 ,220 ,0 ,1770 ,100 ,1510 ,3380 
153 ,70531314fedbc1b3af8f4000a9db70668744eeb1 ,4 ,38 ,true ,1 ,4291 ,4301 ,6342 ,670 ,70 ,10 ,40 ,790 ,550 ,0 ,0 ,2430 ,110 ,1510 ,4050 
154 ,50126fd2d1491c2c07fb0a1196c5b92d42cca114 ,2 ,13 ,true ,1 ,2464 ,2467 ,6337 ,160 ,40 ,0 ,30 ,230 ,380 ,0 ,0 ,760 ,110 ,1530 ,2400 
155 ,4fc3fa8ff817dde1126eb9d077739af47a2df856 ,1 ,9 ,true ,1 ,2324 ,2327 ,6338 ,180 ,20 ,0 ,20 ,220 ,350 ,10 ,0 ,690 ,90 ,1500 ,2280 
156 ,c683f390fb42b52502e1cb19dda152158acc1ecf ,1 ,4 ,true ,1 ,2430 ,2433 ,6342 ,170 ,20 ,0 ,10 ,200 ,360 ,10 ,0 ,790 ,100 ,1470 ,2360 
157 ,667187767387f9fea29fdda7d4b3954598daf37f ,1 ,14 ,true ,1 ,2418 ,2421 ,6346 ,170 ,20 ,0 ,10 ,200 ,360 ,10 ,0 ,800 ,100 ,1480 ,2380 
158 ,d99e05da06642325ba62913845bae0bfdca6d283 ,5 ,89 ,true ,1 ,3800 ,3805 ,6432 ,400 ,90 ,0 ,70 ,560 ,490 ,180 ,0 ,2040 ,100 ,1470 ,3610 
159 ,2710998f5a5d9a56d4498b147c42bb1fee80c3eb ,11 ,74 ,true ,1 ,5218 ,5248 ,6454 ,1030 ,200 ,10 ,130 ,1370 ,660 ,40 ,0 ,3440 ,100 ,1390 ,4930 
160 ,2928cc7b86ac6636e8bcf11d3f0cda71d26e87f6 ,1 ,14 ,true ,1 ,2219 ,2221 ,6466 ,30 ,20 ,0 ,20 ,70 ,350 ,180 ,0 ,600 ,100 ,1480 ,2180 
161 ,36a5b36b0220946c8fc0da67786ee391fa85d0ab ,1 ,17 ,true ,1 ,2201 ,2202 ,6483 ,40 ,10 ,10 ,10 ,70 ,350 ,170 ,0 ,590 ,100 ,1460 ,2150 
162 ,fb4d034cfe1dae1b5cf24ccdc932b03cb3514357 ,6 ,128 ,true ,1 ,3423 ,3429 ,6538 ,600 ,120 ,0 ,60 ,780 ,450 ,80 ,0 ,1650 ,110 ,1520 ,3280 
163 ,739207ceeab62d283435f08c2b3434c27921f83a ,1 ,3 ,true ,1 ,2145 ,2146 ,6539 ,40 ,20 ,0 ,10 ,70 ,360 ,0 ,0 ,440 ,110 ,1550 ,2100 
164 ,172184878323881636d647ba46262828fff9439d ,4 ,33 ,true ,1 ,3427 ,3435 ,6538 ,500 ,80 ,10 ,50 ,650 ,470 ,120 ,0 ,1640 ,110 ,1520 ,3270 
165 ,2c8b1e5b2aefe8910c831dd8eff61f3d193758e8 ,1 ,4 ,true ,1 ,2033 ,2035 ,6538 ,30 ,20 ,0 ,10 ,60 ,340 ,0 ,0 ,400 ,100 ,1510 ,2010 
166 ,3286b2f7459f07fd6cec63bf3c683e742ddf19b0 ,3 ,11 ,true ,1 ,3047 ,3054 ,6539 ,340 ,60 ,0 ,30 ,430 ,420 ,40 ,0 ,1210 ,110 ,1620 ,2940 
167 ,0afcb3824846a50d289dbde20cd4288e2ebc2498 ,1 ,1 ,true ,1 ,2014 ,2017 ,6538 ,30 ,20 ,0 ,10 ,60 ,320 ,10 ,0 ,390 ,100 ,1510 ,2000 
168 ,016b2b06eefe6e8fbabdde8c9682c33809d5fdaa ,1 ,36 ,true ,1 ,2193 ,2195 ,6504 ,60 ,20 ,0 ,10 ,90 ,350 ,0 ,0 ,470 ,100 ,1570 ,2140 
169 ,c53a379155fdc577217e1d74213a0cfafe9bbad8 ,1 ,2 ,true ,1 ,2110 ,2111 ,6504 ,20 ,20 ,0 ,10 ,50 ,330 ,0 ,0 ,380 ,110 ,1600 ,2090 
170 ,b8d4f39281e39f35175e4064c2bd414b92dde88d ,8 ,131 ,true ,1 ,4496 ,4504 ,6426 ,750 ,180 ,10 ,80 ,1020 ,540 ,90 ,10 ,2640 ,100 ,1540 ,4280 
171 ,6d2aa9fd5d08152c128a1e37457af5c57fa1d58f ,5 ,74 ,true ,1 ,3316 ,3323 ,6499 ,520 ,100 ,10 ,40 ,670 ,440 ,110 ,0 ,1420 ,130 ,1610 ,3160 
172 ,9a240cd600c9420d36f95418a24eb89bab7fc7d2 ,8 ,80 ,true ,1 ,5396 ,5415 ,6540 ,1190 ,180 ,0 ,120 ,1490 ,680 ,100 ,0 ,3640 ,80 ,1310 ,5030 
173 ,bf15bf314146ac21780fdb1c42cf9458f8773a6a ,8 ,68 ,true ,1 ,5413 ,5429 ,6600 ,1280 ,180 ,0 ,110 ,1570 ,690 ,80 ,0 ,3750 ,70 ,1300 ,5140 
174 ,ca13f9763823be4c0d39066aa8da7fa9f8473d88 ,5 ,11 ,true ,1 ,5051 ,5065 ,6609 ,1010 ,100 ,0 ,100 ,1220 ,610 ,20 ,0 ,3360 ,120 ,1270 ,4750 
175 ,a6c2beefb9cc109361785187dd76d1201d6b04f9 ,4 ,61 ,true ,1 ,4222 ,4234 ,6669 ,800 ,90 ,0 ,70 ,960 ,530 ,80 ,0 ,2310 ,110 ,1640 ,4060 
176 ,b7eb93b33b78acb992e93ea83c64af6b908365c1 ,1 ,7 ,true ,1 ,2765 ,2770 ,6676 ,240 ,20 ,0 ,20 ,280 ,380 ,10 ,0 ,980 ,100 ,1610 ,2690 
177 ,fbe5878fa6381c7376d9d6e771bf5b0c119c10ae ,1 ,2 ,true ,1 ,2488 ,2505 ,6676 ,100 ,20 ,0 ,20 ,140 ,360 ,10 ,0 ,630 ,100 ,1710 ,2440 
178 ,ff680ad6933332887ae813aae0d07a28dd00f8dc ,3 ,34 ,true ,1 ,2633 ,2635 ,6703 ,100 ,60 ,0 ,30 ,190 ,390 ,190 ,0 ,780 ,100 ,1640 ,2520 
179 ,ea977896eae426878e71825faa9f29c270c4403c ,6 ,117 ,true ,1 ,4247 ,4256 ,6766 ,790 ,150 ,10 ,70 ,1020 ,470 ,360 ,0 ,2250 ,110 ,1750 ,4110 
180 ,ae42b5cafd5dfb370c4e80a72e2275eecdfd791a ,1 ,2 ,true ,1 ,2349 ,2351 ,6766 ,50 ,20 ,0 ,10 ,80 ,340 ,10 ,0 ,500 ,100 ,1710 ,2310 
181 ,bc245066f46152484073a56b466fae6d5b8e4d5f ,1 ,2 ,true ,1 ,3821 ,3826 ,6766 ,350 ,30 ,0 ,20 ,400 ,460 ,50 ,0 ,1720 ,110 ,1880 ,3710 
182 ,e005ba81f1b09da812c8a48fec5333534c0a1575 ,7 ,136 ,true ,1 ,5095 ,5111 ,6872 ,1290 ,170 ,10 ,100 ,1570 ,650 ,150 ,0 ,3270 ,80 ,1450 ,4800 
183 ,2ad2f5f5803758b2fa7838622176cf44861d55c2 ,2 ,8 ,true ,1 ,3030 ,3035 ,6874 ,220 ,50 ,0 ,30 ,300 ,360 ,0 ,0 ,1030 ,110 ,1800 ,2940 
184 ,df5b7e59b3a4108226b9eda15dbee18cdda99d5c ,5 ,125 ,true ,1 ,5078 ,5108 ,6948 ,1530 ,130 ,0 ,80 ,1740 ,650 ,230 ,0 ,3280 ,80 ,1510 ,4870 
185 ,b2048bded4b698aebbedbe054b7e9521dde2b2e3 ,1 ,2 ,true ,2 ,2633 ,2636 ,6948 ,50 ,20 ,0 ,10 ,80 ,360 ,10 ,0 ,480 ,110 ,2000 ,2590 
186 ,0c4a9d2c38c30fa99370f5f825d998a056d3457a ,1 ,2 ,true ,1 ,2691 ,2694 ,6948 ,120 ,30 ,0 ,10 ,160 ,390 ,0 ,0 ,680 ,110 ,1850 ,2640 
187 ,c684b96ec57eca9ad29114c720e4194519058b8e ,3 ,10 ,true ,1 ,4002 ,4010 ,6948 ,560 ,80 ,0 ,40 ,680 ,460 ,0 ,0 ,1950 ,110 ,1800 ,3860 
188 ,b4af3a3ab6be99c5cb0ad89d55f46682bc9cdab0 ,2 ,24 ,true ,1 ,3507 ,3514 ,6964 ,490 ,50 ,0 ,30 ,570 ,410 ,110 ,0 ,1460 ,110 ,1840 ,3410 
189 ,168f1a1f42c16639d720ce14974928130170c8e6 ,1 ,34 ,true ,1 ,2686 ,2687 ,6998 ,160 ,30 ,0 ,10 ,200 ,370 ,20 ,0 ,710 ,110 ,1830 ,2650 
190 ,e079b87a0dc0a17e403750dedfd97b4678cad733 ,2 ,26 ,true ,1 ,3309 ,3314 ,7024 ,420 ,50 ,0 ,40 ,510 ,360 ,100 ,0 ,1270 ,120 ,1840 ,3230 
191 ,b6b3ffc06742744fe64646105299bae1828e6308 ,1 ,22 ,true ,1 ,3208 ,3214 ,7030 ,360 ,40 ,0 ,10 ,410 ,370 ,70 ,0 ,1170 ,110 ,1840 ,3120 
192 ,76ff7438e048aaf9c4dba387a4fc33f0b938273a ,2 ,69 ,true ,1 ,3293 ,3298 ,7063 ,380 ,40 ,0 ,30 ,450 ,380 ,50 ,0 ,1220 ,110 ,1900 ,3230 
193 ,9011034943460680e96dcea79bc50f76870094c7 ,2 ,12 ,true ,1 ,3305 ,3310 ,7071 ,320 ,40 ,10 ,20 ,390 ,400 ,0 ,0 ,1220 ,110 ,1900 ,3230 
194 ,ba4a476af4c9e2e71a06c62a8bcb562252e1bf7b ,3 ,52 ,true ,0 ,3292 ,3296 ,7115 ,230 ,70 ,0 ,30 ,330 ,400 ,220 ,0 ,1170 ,110 ,1910 ,3190 
195 ,34a6565f296fdb970837ec269326e01f57d51f62 ,1 ,7 ,true ,1 ,3605 ,3611 ,7116 ,410 ,30 ,10 ,20 ,470 ,390 ,60 ,0 ,1330 ,120 ,2100 ,3550 
196 ,bd0e744d18f864a4b3496c2523338a811fff4be3 ,1 ,45 ,true ,1 ,3448 ,3453 ,7119 ,360 ,30 ,0 ,20 ,410 ,390 ,10 ,0 ,1240 ,120 ,2020 ,3380 
197 ,12885f16041a8f395d39635ef0d33f270c463595 ,1 ,24 ,true ,2 ,3597 ,3604 ,7141 ,400 ,20 ,10 ,20 ,450 ,410 ,30 ,0 ,1320 ,110 ,2080 ,3510 
198 ,24ff73cbdffeac20e6f5892e2a67fd147dc7743e ,2 ,101 ,true ,1 ,4735 ,4747 ,7148 ,820 ,70 ,10 ,40 ,940 ,470 ,70 ,0 ,2290 ,110 ,2170 ,4570 
199 ,208a9cd68330bc22872709204d5d14d521394f50 ,1 ,2 ,true ,1 ,3239 ,3244 ,7148 ,320 ,20 ,10 ,10 ,360 ,380 ,0 ,0 ,1130 ,110 ,1930 ,3170 
200 ,6b608ed24946a0b5058c6ec0014e6f76adc1bd57 ,1 ,1 ,true ,1 ,3263 ,3269 ,7149 ,330 ,30 ,0 ,20 ,380 ,380 ,0 ,0 ,1160 ,110 ,1920 ,3190 
201 ,e025e8446a3020ddf8c5ea9861139ecc3e92b716 ,1 ,14 ,true ,1 ,3665 ,3671 ,7163 ,460 ,40 ,0 ,20 ,520 ,410 ,60 ,0 ,1380 ,110 ,2100 ,3590 
202 ,93b3ba3d506826a8091b9abe9af694a571ba18e6 ,1 ,4 ,true ,1 ,2538 ,2540 ,7167 ,20 ,20 ,0 ,10 ,50 ,340 ,10 ,0 ,400 ,120 ,1980 ,2500 
203 ,efb817242d1f87396755cd52ccfe8476aa480e16 ,2 ,39 ,true ,1 ,3821 ,3828 ,7170 ,460 ,50 ,0 ,30 ,540 ,440 ,0 ,0 ,1600 ,110 ,2000 ,3710 
204 ,046b363f0a0b68fb6f0aff3830552d2259da9b79 ,1 ,1 ,true ,1 ,3403 ,3410 ,7171 ,350 ,20 ,0 ,20 ,400 ,400 ,0 ,0 ,1240 ,120 ,1970 ,3330 
205 ,f92c4a3e533919694ae586153de4afd2bffe864a ,2 ,69 ,true ,0 ,4619 ,4629 ,7200 ,890 ,60 ,0 ,40 ,990 ,480 ,100 ,0 ,2380 ,120 ,1980 ,4480 
206 ,6cdf1118443f8698964428e7eb473a07195e981a ,1 ,139 ,true ,1 ,3443 ,3449 ,7198 ,340 ,30 ,0 ,20 ,390 ,400 ,0 ,0 ,1260 ,110 ,2000 ,3370 
207 ,3418fe1867a4131c767054abeea521952c6b05e7 ,3 ,48 ,true ,1 ,4293 ,4302 ,7200 ,620 ,70 ,10 ,50 ,750 ,480 ,0 ,0 ,2000 ,120 ,2010 ,4130 
208 ,3897dee3bc242caea1629c79141f50816fc59979 ,1 ,1 ,true ,1 ,3896 ,3902 ,7201 ,440 ,40 ,10 ,20 ,510 ,430 ,0 ,0 ,1450 ,120 ,2230 ,3800 
209 ,1e9be92dcb7d17d1f4bc53c2e40c5f3954fe27ea ,1 ,32 ,true ,1 ,2930 ,2932 ,7221 ,180 ,30 ,0 ,20 ,230 ,360 ,40 ,0 ,660 ,120 ,2090 ,2870 
210 ,24a77ff1dc412533c6dfed73256e63b27887bfb2 ,2 ,20 ,true ,1 ,4680 ,4691 ,7237 ,860 ,70 ,0 ,40 ,970 ,500 ,60 ,0 ,2400 ,120 ,2000 ,4520 
211 ,1aaf040ad4467aa7fd420c95fd246e9720a259d9 ,1 ,4 ,true ,1 ,3934 ,3942 ,7241 ,570 ,30 ,0 ,20 ,630 ,430 ,60 ,0 ,1590 ,130 ,2110 ,3830 
212 ,3836382a838a186733c68667b7490ebb79a0177a ,1 ,2 ,true ,1 ,3972 ,3985 ,7241 ,460 ,40 ,0 ,20 ,520 ,460 ,0 ,0 ,1620 ,120 ,2130 ,3870 
213 ,53893827b3c65eee4be0fe564ceae7d481d0a834 ,1 ,19 ,true ,1 ,2598 ,2600 ,7244 ,30 ,30 ,0 ,10 ,70 ,340 ,0 ,0 ,410 ,110 ,2040 ,2560 
214 ,cc7f048ee0e7f617a9b393da29b9e6a62eb3862a ,1 ,8 ,true ,1 ,2691 ,2694 ,7238 ,20 ,30 ,0 ,10 ,60 ,330 ,0 ,0 ,390 ,110 ,2140 ,2640 
215 ,8be43562635ef7cb3d0abc95bcd247343aa51ea6 ,0 ,0 ,true ,1 ,4 ,5 ,7238 
216 ,6736de43f6f02d4b03876ca02eba588ffc28e909 ,1 ,3 ,true ,1 ,2566 ,2567 ,7237 ,10 ,30 ,0 ,10 ,50 ,350 ,0 ,0 ,420 ,110 ,2000 ,2530 
217 ,992076ffcd013179600b63fbd6948bc3c660983f ,2 ,4 ,true ,1 ,3505 ,3512 ,7237 ,390 ,50 ,0 ,30 ,470 ,410 ,0 ,0 ,1330 ,110 ,1970 ,3410 
218 ,fc924f137518b2b51cbf893d9b3c53f2e97a3a46 ,2 ,45 ,true ,1 ,2925 ,2929 ,7272 ,170 ,50 ,0 ,20 ,240 ,390 ,30 ,0 ,750 ,120 ,1990 ,2860 
219 ,1a4023f5d1bbc940e913cd98f0ce10b86714273b ,31 ,3110 ,true ,1 ,9059 ,9085 ,7328 ,2320 ,890 ,0 ,390 ,3600 ,1070 ,300 ,0 ,6690 ,80 ,1610 ,8380 
220 ,374c4b9c751d2b103969e25ae643816b60159502 ,6 ,177 ,true ,1 ,3441 ,3445 ,7379 ,310 ,170 ,0 ,80 ,560 ,430 ,170 ,0 ,1170 ,110 ,2040 ,3320 
221 ,545e2e6526409319145e4a8f11ab5d45be5c5c6b ,1 ,58 ,true ,1 ,2554 ,2555 ,7377 ,50 ,30 ,0 ,10 ,90 ,340 ,10 ,0 ,440 ,110 ,1970 ,2520 
222 ,d28bd13abad8547ec2ba2b97c88b8919d187adf4 ,2 ,270 ,true ,1 ,2897 ,2902 ,7119 ,190 ,110 ,0 ,30 ,330 ,390 ,150 ,10 ,920 ,100 ,1800 ,2820 
223 ,81b3a88398bd87cc167cbb92f69135e847309b59 ,2 ,236 ,true ,1 ,2691 ,2695 ,6887 ,120 ,120 ,0 ,30 ,270 ,390 ,90 ,0 ,750 ,110 ,1710 ,2570 
224 ,37747e9cfab6754a080f4ec9d191e3b8bdf36dc8 ,1 ,70 ,true ,1 ,2186 ,2189 ,6883 ,30 ,20 ,0 ,10 ,60 ,340 ,10 ,0 ,410 ,100 ,1640 ,2150 
225 ,dbc4e4625c2fc78163dfa040b7611b72a270a664 ,1 ,24 ,true ,1 ,2200 ,2202 ,6885 ,20 ,20 ,0 ,10 ,50 ,340 ,0 ,0 ,390 ,100 ,1680 ,2170 
226 ,36ffcba6a0525d5bcea04dcedbde7d00bbc37f28 ,1 ,34 ,true ,1 ,2351 ,2354 ,6885 ,90 ,30 ,0 ,10 ,130 ,370 ,10 ,0 ,510 ,110 ,1690 ,2310 
227 ,1dbd0eda69f57fc0dc7765f8cb4f9c50580d13b0 ,8 ,341 ,true ,2 ,4547 ,4561 ,6956 ,690 ,180 ,10 ,110 ,990 ,590 ,20 ,0 ,2420 ,110 ,1640 ,4170 
228 ,1353a8d7161046ce47a151579128a3d26666cac4 ,3 ,567 ,true ,1 ,4860 ,4867 ,7507 ,1400 ,90 ,10 ,40 ,1540 ,480 ,780 ,0 ,2810 ,80 ,1820 ,4710 
229 ,542f7015fe8c7399aef618650be9315c3d7f32cf ,6 ,341 ,true ,1 ,4767 ,4776 ,7616 ,860 ,180 ,0 ,110 ,1150 ,550 ,110 ,0 ,2500 ,110 ,1960 ,4570 
230 ,61a552df5327ab4e4f968ba721b7105f6986a3d0 ,2 ,456 ,true ,1 ,3939 ,3960 ,7620 ,620 ,100 ,0 ,30 ,750 ,450 ,520 ,0 ,1770 ,110 ,1960 ,3840 
231 ,def75e5790b19d1df50ab56696c6136704d6e38f ,1 ,4 ,true ,1 ,2511 ,2512 ,7620 ,10 ,30 ,0 ,10 ,50 ,340 ,0 ,0 ,390 ,110 ,1970 ,2470 
232 ,e7f946ac35738d1dfe215079ed94d3e3dc2e6361 ,1 ,77 ,true ,1 ,2746 ,2748 ,7599 ,130 ,20 ,0 ,20 ,170 ,360 ,0 ,0 ,620 ,110 ,1970 ,2700 
233 ,14d1e6f8358fbce5370f79c48af04f4257a31f34 ,3 ,225 ,true ,1 ,3115 ,3119 ,7608 ,230 ,80 ,0 ,50 ,360 ,410 ,0 ,0 ,960 ,110 ,1940 ,3010 
234 ,35ba3e93e77997650a0ea3697d0c025f40d9b2a6 ,1 ,144 ,true ,1 ,2573 ,2576 ,7642 ,40 ,30 ,0 ,20 ,90 ,340 ,0 ,0 ,430 ,120 ,1990 ,2540 
235 ,7fb19c9684fa6e613c6ebed2eb7c95232ee0cc8c ,2 ,36 ,true ,1 ,3815 ,3818 ,7642 ,320 ,50 ,0 ,30 ,400 ,450 ,0 ,0 ,1580 ,110 ,1980 ,3670 
236 ,45f6cd0555d56ce2af465560cbedf8b83c7c2a62 ,2 ,31 ,true ,2 ,3920 ,3925 ,7631 ,340 ,60 ,0 ,40 ,440 ,440 ,0 ,0 ,1630 ,110 ,2050 ,3790 
237 ,bcc0a9d77ccc850aa01f205e4298180f96412269 ,8 ,245 ,true ,1 ,4953 ,4961 ,7760 ,870 ,190 ,0 ,130 ,1200 ,630 ,80 ,0 ,2890 ,110 ,1700 ,4700 
238 ,e867a3c1c571fa7437ffe4cf55ccc78a67678278 ,1 ,2 ,true ,1 ,2690 ,2693 ,7760 ,110 ,30 ,0 ,20 ,160 ,350 ,0 ,0 ,570 ,110 ,1970 ,2650 
239 ,2ab21daad1b0c4c7b07b23cc3213abb6c2ac327c ,1 ,16 ,true ,1 ,2773 ,2775 ,7760 ,140 ,30 ,0 ,20 ,190 ,380 ,0 ,0 ,660 ,110 ,1950 ,2720 
240 ,3a5f7e83e9ac7b6f8d5e5d5e7f67b2aed708ca5f ,7 ,295 ,true ,1 ,4844 ,4853 ,7789 ,1230 ,240 ,0 ,110 ,1580 ,600 ,220 ,0 ,2800 ,90 ,1620 ,4510 
241 ,673a466101150ca028559eb4722e897b1e9699ee ,5 ,54 ,true ,1 ,3209 ,3211 ,7804 ,250 ,150 ,0 ,60 ,460 ,400 ,10 ,0 ,970 ,120 ,1980 ,3070 
242 ,80deb0551d9b5f7db4a1fcce729721810afd492a ,2 ,26 ,true ,1 ,2794 ,2795 ,7792 ,90 ,60 ,0 ,20 ,170 ,360 ,0 ,0 ,630 ,110 ,2000 ,2740 
243 ,327f4694d56d800fc9ad4accb027ef83cc27c158 ,2 ,71 ,true ,1 ,4110 ,4116 ,7791 ,640 ,80 ,0 ,40 ,760 ,420 ,140 ,0 ,1700 ,110 ,2200 ,4010 
244 ,94d1c1e1dd07e294c4ae1773ae83f4ed967bde57 ,3 ,103 ,true ,1 ,3131 ,3135 ,7768 ,250 ,70 ,0 ,50 ,370 ,430 ,0 ,0 ,910 ,110 ,2000 ,3020 
245 ,6e267ae8a5b5e0829837c7e07c6501e88e37bfc5 ,4 ,172 ,true ,1 ,3560 ,3565 ,7803 ,450 ,130 ,0 ,60 ,640 ,420 ,110 ,0 ,1330 ,120 ,1990 ,3440 
246 ,964b694f7d370ce8be194e6bd3f61590c336293e ,1 ,6 ,true ,1 ,2601 ,2604 ,7803 ,20 ,20 ,0 ,20 ,60 ,350 ,0 ,0 ,410 ,120 ,2040 ,2570 
247 ,f5e99a42e51554b0a3b9ec27a80d69ab0327ba71 ,3 ,94 ,true ,1 ,3189 ,3193 ,7822 ,230 ,90 ,0 ,60 ,380 ,410 ,20 ,0 ,980 ,110 ,1990 ,3080 
248 ,6d323c78cb3a2f4aa4b4a42afe8f8d104f096553 ,1 ,2 ,true ,1 ,2555 ,2557 ,7822 ,0 ,20 ,0 ,20 ,50 ,340 ,0 ,0 ,390 ,120 ,2020 ,2530 
249 ,9f617f6973699f510beb958266371efd855651ab ,3 ,172 ,true ,1 ,3172 ,3177 ,7836 ,270 ,90 ,0 ,50 ,420 ,430 ,80 ,0 ,930 ,120 ,1990 ,3040 
250 ,f09a5bf382743ed9689ebe6294c60f0cb9f8631b ,1 ,2 ,true ,1 ,2863 ,2865 ,7836 ,150 ,30 ,0 ,20 ,200 ,370 ,0 ,0 ,660 ,120 ,2010 ,2790 
251 ,5d420d5ac190dd2a64ae7d0f6f34a2837243a35f ,1 ,2 ,true ,1 ,3359 ,3365 ,7836 ,340 ,20 ,10 ,20 ,390 ,400 ,0 ,0 ,1160 ,120 ,2000 ,3280 
252 ,2fc9335eb67608c3ef79187b9cf504ba294e1340 ,1 ,13 ,true ,1 ,2580 ,2582 ,7845 ,70 ,30 ,0 ,10 ,110 ,350 ,0 ,0 ,460 ,120 ,1960 ,2540 
253 ,d7a59facec061e955dae6a0946490bd2169f3e48 ,1 ,12 ,true ,1 ,2531 ,2532 ,7845 ,30 ,30 ,0 ,10 ,70 ,340 ,0 ,0 ,410 ,120 ,1980 ,2510 
254 ,c95a6a30df51a9d003761e330fc85f97c823acfa ,1 ,8 ,true ,1 ,2815 ,2817 ,7845 ,140 ,20 ,0 ,20 ,180 ,360 ,0 ,0 ,590 ,110 ,2060 ,2760 
255 ,44d62dfbea61efc9fe19cbd59b322e4043062db0 ,1 ,31 ,true ,1 ,2811 ,2812 ,7848 ,70 ,20 ,0 ,20 ,110 ,370 ,10 ,0 ,640 ,110 ,2030 ,2780 
256 ,0576f4228c3059c56b1ab1c8e4c8fe094b3717f1 ,1 ,4 ,true ,1 ,2519 ,2521 ,7850 ,10 ,30 ,0 ,10 ,50 ,330 ,0 ,0 ,380 ,110 ,2010 ,2500 
257 ,e9e83b50e1e8ce81270166962d567339f0164b84 ,1 ,13 ,true ,1 ,2592 ,2593 ,7849 ,10 ,20 ,0 ,10 ,40 ,340 ,0 ,0 ,390 ,110 ,2060 ,2560 
258 ,be7eb32315d5e99b71d41df7c05c3bfc77a426d7 ,1 ,5 ,true ,1 ,2525 ,2526 ,7850 ,20 ,20 ,0 ,20 ,60 ,320 ,10 ,0 ,390 ,110 ,1990 ,2490 
259 ,0d50b0e11d294f59cea66eede8070a599be78ae6 ,1 ,26 ,true ,1 ,2828 ,2832 ,7872 ,90 ,30 ,0 ,10 ,130 ,360 ,10 ,0 ,610 ,120 ,2060 ,2790 
260 ,047811fb138e829eed622fb22aa50d7522b5a48c ,4 ,91 ,true ,1 ,3182 ,3184 ,7921 ,190 ,90 ,10 ,50 ,340 ,450 ,30 ,0 ,840 ,130 ,2060 ,3030 
261 ,beab777d5da988c03ed010157e4a84bccf745b6c ,2 ,17 ,true ,1 ,2906 ,2909 ,7920 ,120 ,60 ,0 ,40 ,220 ,380 ,0 ,0 ,660 ,120 ,2070 ,2850 
262 ,021546526b64b57128ccd50a60bab57077d6944e ,1 ,6 ,true ,1 ,2562 ,2564 ,7920 ,40 ,20 ,0 ,20 ,80 ,340 ,0 ,0 ,430 ,120 ,1970 ,2520 
263 ,92e06427d844b26dde9125d592d8d3803bbc7199 ,1 ,13 ,true ,1 ,3380 ,3385 ,7929 ,370 ,20 ,0 ,20 ,410 ,380 ,20 ,0 ,1190 ,110 ,2000 ,3300 
264 ,b99c26f6edeeb68ab903bea981e1bf68ec6dbde4 ,2 ,32 ,true ,1 ,2986 ,2989 ,7955 ,160 ,60 ,0 ,20 ,240 ,370 ,20 ,0 ,770 ,120 ,2030 ,2920 
265 ,130ae3baad7fddfa08de0d8748c0aa24319c6833 ,1 ,5 ,true ,1 ,3548 ,3551 ,7960 ,220 ,30 ,0 ,20 ,270 ,400 ,10 ,0 ,1360 ,110 ,1990 ,3460 
266 ,9eeebf04eecc641d47260cf156a88e1f24a6a81e ,1 ,23 ,true ,1 ,2525 ,2526 ,7971 ,10 ,30 ,0 ,10 ,50 ,330 ,0 ,0 ,380 ,120 ,1990 ,2490 
267 ,872bca45e4002654d3e8d9cb45de8a95064a8e86 ,1 ,23 ,true ,1 ,2571 ,2573 ,7954 ,60 ,30 ,0 ,10 ,100 ,350 ,0 ,0 ,450 ,110 ,1980 ,2540 
268 ,6c885fdeb2f423a75e518bee816d9efde1f29dc3 ,1 ,33 ,true ,1 ,2821 ,2823 ,7961 ,180 ,30 ,0 ,20 ,230 ,360 ,30 ,0 ,650 ,110 ,1990 ,2750 
269 ,4c08f363a49d62bfaa64521a418ee3df882378b6 ,1 ,7 ,true ,1 ,2549 ,2551 ,7966 ,40 ,30 ,0 ,20 ,90 ,330 ,0 ,0 ,420 ,120 ,1970 ,2510 
270 ,2230ad9225053a7dc7a46a70ec689cfb65e66ed6 ,1 ,1 ,true ,1 ,2534 ,2536 ,7967 ,20 ,20 ,0 ,20 ,60 ,340 ,0 ,0 ,410 ,110 ,1970 ,2490 
271 ,90ed94fcc609c2e18fca12fc98e714cc1c935521 ,2 ,117 ,true ,1 ,3126 ,3129 ,8002 ,280 ,50 ,0 ,40 ,370 ,410 ,0 ,0 ,920 ,110 ,1980 ,3010 
272 ,68fc4457710a25ba979ed60434c18be12e8a28c8 ,1 ,9 ,true ,1 ,2775 ,2778 ,8003 ,60 ,30 ,0 ,20 ,110 ,350 ,0 ,0 ,600 ,110 ,2020 ,2730 
273 ,42c3914c790918b27b89741e7714e8a16307ee19 ,1 ,28 ,true ,1 ,2796 ,2797 ,8013 ,170 ,30 ,0 ,10 ,210 ,370 ,10 ,0 ,640 ,110 ,1980 ,2730 
274 ,b25c4249af2c7c8b1a81b39e86523454c3594e91 ,4 ,150 ,true ,1 ,3570 ,3575 ,7969 ,370 ,110 ,0 ,70 ,550 ,460 ,20 ,0 ,1300 ,120 ,1970 ,3390 
275 ,b7152f7baf81266eb9bbf0c7e596d8b8d90a8b0b ,5 ,166 ,true ,1 ,3801 ,3807 ,8013 ,420 ,140 ,0 ,80 ,640 ,500 ,20 ,0 ,1450 ,120 ,2030 ,3600 
276 ,122ae4f141356bd94e0eea84dd3ec4d49173f024 ,1 ,39 ,true ,1 ,2820 ,2822 ,8018 ,130 ,30 ,0 ,20 ,180 ,380 ,0 ,0 ,650 ,120 ,1980 ,2750 
277 ,aaff9436aa8c0e205e0067f909ff8e8c7e1a3eab ,1 ,12 ,true ,1 ,3442 ,3446 ,8018 ,330 ,30 ,0 ,20 ,380 ,380 ,0 ,0 ,1270 ,120 ,1980 ,3370 
278 ,4c7ebe213bccbed6e930d2be84415da8f981be46 ,1 ,103 ,true ,1 ,2898 ,2900 ,8027 ,190 ,30 ,0 ,20 ,240 ,370 ,30 ,0 ,700 ,120 ,2010 ,2830 
279 ,4d1dd552ba697706d221a57456d0a1c3ad449998 ,5 ,50 ,true ,1 ,3395 ,3399 ,8055 ,400 ,120 ,0 ,70 ,590 ,430 ,50 ,0 ,1160 ,120 ,1980 ,3260 
280 ,8f8f08b2a71ed3e58611dc7396548be79a2cb3dd ,1 ,4 ,true ,1 ,2576 ,2578 ,8057 ,40 ,20 ,0 ,10 ,70 ,340 ,10 ,0 ,420 ,120 ,2000 ,2540 
281 ,72d5a2f573d4f348d040a5a0cce2df07d365fcb8 ,2 ,25 ,true ,1 ,2866 ,2868 ,8080 ,160 ,50 ,0 ,20 ,230 ,370 ,20 ,0 ,720 ,110 ,1990 ,2820 
282 ,28f8cc1951dfcb1921f15ec7e9b3d9a9d3d26678 ,3 ,56 ,true ,0 ,3069 ,3072 ,8058 ,220 ,80 ,10 ,40 ,350 ,390 ,20 ,0 ,880 ,110 ,1990 ,2990 
283 ,253946f76931c7943d0f979083cee2a6e1e620dc ,2 ,15 ,true ,1 ,3040 ,3043 ,8067 ,190 ,60 ,0 ,30 ,280 ,390 ,10 ,0 ,850 ,110 ,2000 ,2960 
284 ,aedacfc4ac5dfc08e112479e39c1a42680934c8d ,2 ,25 ,true ,1 ,2900 ,2903 ,8090 ,160 ,50 ,0 ,40 ,250 ,360 ,10 ,0 ,720 ,110 ,2000 ,2830 
285 ,317e47069fa1bc7836483daa54a51f35f0e58fc3 ,4 ,90 ,true ,1 ,4507 ,4513 ,8090 ,650 ,110 ,0 ,80 ,840 ,530 ,30 ,0 ,2170 ,110 ,2010 ,4290 
286 ,1a218cdb3f4c1f45e466fc00b7ddb06f05713a9d ,3 ,77 ,true ,1 ,3345 ,3349 ,8109 ,290 ,80 ,0 ,50 ,420 ,420 ,20 ,0 ,1060 ,120 ,2030 ,3210 
287 ,deb937f523650509628dd7ce8a4bdedae6388e4e ,2 ,18 ,true ,1 ,2682 ,2683 ,8109 ,70 ,60 ,0 ,30 ,160 ,330 ,10 ,0 ,510 ,110 ,2040 ,2660 
288 ,6a4ed15027121751b3e98cc4393d52ba5be0d1a0 ,2 ,4 ,true ,0 ,2662 ,2663 ,8109 ,40 ,60 ,0 ,30 ,130 ,340 ,0 ,0 ,500 ,120 ,2000 ,2620 
289 ,7d3f90f86863bb21ae5f5aa6174d7cde1733a3e4 ,3 ,38 ,true ,1 ,5125 ,5131 ,8123 ,670 ,80 ,0 ,60 ,810 ,510 ,200 ,0 ,2770 ,120 ,2050 ,4940 
290 ,7d44289cfe9df54f4adc5c00362120f7a05db624 ,1 ,2 ,true ,1 ,3613 ,3616 ,8123 ,210 ,20 ,0 ,10 ,240 ,400 ,40 ,0 ,1380 ,120 ,2020 ,3520 
291 ,a146b1bedfbe0052685c2fd7c50888cdf3cbb007 ,1 ,241 ,true ,1 ,3131 ,3133 ,8130 ,180 ,40 ,0 ,20 ,240 ,350 ,20 ,0 ,950 ,120 ,2000 ,3070 
292 ,c7ad28cbbd4c0ad53782f98c1f571a7504edbabf ,1 ,6 ,true ,0 ,3365 ,3370 ,8130 ,350 ,30 ,0 ,20 ,400 ,390 ,0 ,0 ,1170 ,120 ,2000 ,3290 
293 ,85294bed534142239f9612c1594087bea9326233 ,1 ,2 ,true ,0 ,2709 ,2711 ,8130 ,70 ,30 ,0 ,20 ,120 ,340 ,0 ,0 ,550 ,110 ,2010 ,2670 
294 ,bac62c670aad66ca57f0f01fb5b083c0cb3e9774 ,1 ,14 ,true ,1 ,2877 ,2880 ,8118 ,150 ,30 ,0 ,10 ,190 ,370 ,0 ,0 ,700 ,110 ,2000 ,2810 
295 ,121a17367b52ec619253f7a20365711afd1fbecb ,1 ,10 ,true ,1 ,2596 ,2597 ,8122 ,30 ,30 ,0 ,20 ,80 ,350 ,0 ,0 ,430 ,120 ,2010 ,2560 
296 ,3e6667f7d744187eb522891cb9255b5045f4eda3 ,1 ,63 ,true ,1 ,2839 ,2841 ,8143 ,140 ,30 ,0 ,10 ,180 ,350 ,30 ,0 ,650 ,110 ,2040 ,2800 
297 ,ad2e80ab706f4a21d08e111585a2395ba6b834bf ,3 ,47 ,true ,0 ,3345 ,3349 ,8152 ,290 ,90 ,0 ,60 ,440 ,430 ,0 ,0 ,1120 ,120 ,2000 ,3240 
298 ,0068a9b163fe5f473abc1c2cab9c68d0d42fa610 ,2 ,45 ,true ,1 ,3735 ,3739 ,8157 ,490 ,60 ,0 ,30 ,580 ,450 ,110 ,0 ,1440 ,120 ,2030 ,3590 
299 ,afe68904f83d8bab0b05823a9ca01cf3ecf721e6 ,4 ,175 ,true ,1 ,3370 ,3373 ,8329 ,240 ,90 ,0 ,50 ,380 ,380 ,310 ,0 ,1070 ,120 ,2110 ,3300 
300 ,03c3f8e70ff67e503463be78afaff46bce84c8d1 ,3 ,155 ,true ,1 ,3126 ,3129 ,8410 ,230 ,70 ,0 ,50 ,350 ,370 ,60 ,0 ,840 ,120 ,2070 ,3030 
301 ,5a31a7c9a008ecf57041246ecb974d614f6c6230 ,3 ,33 ,true ,1 ,2977 ,2995 ,8419 ,150 ,80 ,0 ,40 ,270 ,410 ,0 ,0 ,680 ,120 ,2080 ,2880 
302 ,0de4190852d9bc09640373be361db2367d7a8a21 ,2 ,20 ,true ,1 ,2907 ,2910 ,8425 ,130 ,60 ,0 ,20 ,210 ,410 ,10 ,0 ,630 ,120 ,2060 ,2810 
303 ,9946753b50ad853036bd9f7132e8ac190d4c1c63 ,2 ,18 ,true ,0 ,3078 ,3081 ,8435 ,250 ,50 ,10 ,20 ,330 ,400 ,40 ,0 ,820 ,120 ,2050 ,2990 
304 ,72d334124279623b9886439cc26c25a65828281f ,3 ,51 ,true ,0 ,5047 ,5054 ,8461 ,650 ,80 ,0 ,60 ,790 ,500 ,30 ,0 ,2660 ,120 ,2070 ,4850 
305 ,c3dba7f4373717663ea5e256f01beaaadbf7f032 ,1 ,5 ,true ,1 ,3709 ,3713 ,8460 ,350 ,30 ,0 ,20 ,400 ,390 ,0 ,0 ,1410 ,120 ,2100 ,3630 
306 ,8e5bad6f61f14b4cf8106fe711cdb5ad2a8688e4 ,2 ,8 ,true ,1 ,3010 ,3013 ,8460 ,140 ,50 ,0 ,20 ,210 ,400 ,0 ,0 ,720 ,120 ,2080 ,2920 
307 ,f6f602c241c674dc82738b0bd4b6a2b1c168e188 ,4 ,226 ,true ,1 ,3682 ,3686 ,8632 ,510 ,120 ,0 ,50 ,680 ,410 ,140 ,0 ,1290 ,130 ,2150 ,3570 
308 ,be0fc1e14bdd44576577cc543e71d663852fd7fd ,1 ,8 ,true ,0 ,2845 ,2848 ,8632 ,110 ,20 ,0 ,10 ,140 ,360 ,10 ,0 ,520 ,120 ,2160 ,2800 
309 ,cd4fe93c3ad11a729f8c3dec3f77589f40c880c0 ,1 ,11 ,true ,1 ,2806 ,2808 ,8633 ,50 ,30 ,0 ,10 ,90 ,350 ,10 ,0 ,510 ,120 ,2140 ,2770 
310 ,c066b403f350fa2cc8e8578772eb9a5e5201b06e ,1 ,2 ,true ,1 ,2797 ,2800 ,8633 ,90 ,30 ,0 ,20 ,140 ,350 ,0 ,0 ,490 ,120 ,2150 ,2760 
311 ,37ef0cfa90a714e640cc1abc057b565ded5cf3de ,2 ,4 ,true ,0 ,3259 ,3262 ,8635 ,210 ,80 ,0 ,30 ,320 ,460 ,0 ,0 ,860 ,120 ,2150 ,3130 
312 ,a95a55a548caa6ad3657e0f28719831f3d28f79e ,1 ,13 ,true ,1 ,3115 ,3117 ,8634 ,130 ,30 ,0 ,20 ,180 ,350 ,0 ,0 ,800 ,130 ,2140 ,3070 
313 ,46c68e01ecd82af27e8db97aa2688ba43161fdcd ,1 ,8 ,true ,1 ,3063 ,3066 ,8634 ,160 ,30 ,0 ,10 ,200 ,380 ,0 ,0 ,730 ,120 ,2140 ,2990 
314 ,0b109b4f5b77f2629968c9a39b381a825d78e6da ,1 ,13 ,true ,1 ,3186 ,3188 ,8633 ,160 ,20 ,0 ,10 ,190 ,350 ,10 ,0 ,880 ,130 ,2140 ,3150 
315 ,dc550b50030e8a1dde9827bb6fc9426489c7efe8 ,2 ,17 ,true ,1 ,3304 ,3307 ,8635 ,180 ,60 ,0 ,30 ,270 ,370 ,0 ,0 ,990 ,120 ,2140 ,3250 
316 ,ea6826b55777c5bd5e8f6f6167c39aa6de1a42c4 ,1 ,13 ,true ,1 ,3193 ,3195 ,8634 ,150 ,30 ,0 ,20 ,200 ,350 ,0 ,0 ,890 ,120 ,2140 ,3150 
317 ,f622386a8de68f353600380096bc2b2a585432fb ,2 ,99 ,true ,0 ,3021 ,3022 ,8732 ,190 ,50 ,0 ,30 ,270 ,350 ,60 ,0 ,680 ,130 ,2170 ,2980 
318 ,d4494a802fdf15f38c475ff2bc0b22c5cf68d0f9 ,1 ,8 ,true ,1 ,2723 ,2724 ,8738 ,10 ,30 ,0 ,20 ,60 ,320 ,0 ,0 ,380 ,130 ,2170 ,2680 
319 ,3a94c748fdc053eb36aaf724be8b4446799827ac ,9 ,370 ,true ,1 ,5664 ,5675 ,8765 ,1000 ,280 ,0 ,150 ,1430 ,600 ,390 ,0 ,3360 ,130 ,1860 ,5350 
320 ,0b38b1d592bfb7d38f2cae9244f74f604a9faf6d ,1 ,4 ,true ,1 ,2760 ,2761 ,8765 ,30 ,20 ,0 ,20 ,70 ,330 ,10 ,0 ,450 ,120 ,2170 ,2740 
321 ,dbd34b18aef7689a32e7bfdc8d5e377ddf5ca59f ,2 ,4 ,true ,1 ,3723 ,3726 ,8765 ,280 ,60 ,0 ,40 ,380 ,380 ,0 ,0 ,1360 ,130 ,2160 ,3650 
322 ,df9e1050415e0bc7fb9dfe11f82197f67f1f9740 ,1 ,4 ,true ,1 ,2843 ,2845 ,8765 ,40 ,20 ,10 ,20 ,90 ,370 ,0 ,0 ,490 ,120 ,2170 ,2780 
323 ,d0267fc8a672f1f79f80124cc39bd7410ae1fbe2 ,2 ,66 ,true ,1 ,3441 ,3444 ,8765 ,310 ,70 ,0 ,30 ,410 ,390 ,60 ,0 ,1060 ,130 ,2170 ,3360 
324 ,30c17d5547cc7cb23bcab9674fd62f606861a0f1 ,1 ,1 ,true ,1 ,2913 ,2915 ,8766 ,100 ,20 ,10 ,20 ,150 ,350 ,0 ,0 ,600 ,120 ,2150 ,2870 
325 ,052fe2cc5566bb3a7c355ebbb7e0d7934824b43b ,4 ,61 ,true ,1 ,3632 ,3636 ,8811 ,320 ,100 ,0 ,70 ,490 ,460 ,30 ,0 ,1150 ,130 ,2160 ,3440 
326 ,b8da7af98a0ee30d679931cda1385f0dc96e6427 ,1 ,26 ,true ,1 ,2820 ,2822 ,8815 ,80 ,30 ,0 ,20 ,130 ,350 ,10 ,0 ,490 ,130 ,2160 ,2780 
327 ,7f2cc263fb3dba63eb564a468844a166159dbc8f ,1 ,2 ,true ,1 ,3257 ,3258 ,8817 ,150 ,30 ,0 ,20 ,200 ,350 ,0 ,0 ,880 ,130 ,2210 ,3220 
328 ,2d5a8c509396205641ea1558da656a75816517ce ,3 ,80 ,true ,1 ,4153 ,4157 ,8819 ,490 ,100 ,0 ,50 ,640 ,440 ,90 ,0 ,1360 ,130 ,2530 ,4020 
329 ,100f2142ea758fccdfbdcdd1407d9fcf5ae6a1c5 ,2 ,16 ,true ,1 ,3440 ,3443 ,8821 ,220 ,60 ,0 ,30 ,310 ,410 ,10 ,0 ,880 ,140 ,2320 ,3340 
330 ,88572d0d63b9c9447fb9d15ad530b460534d9f64 ,5 ,254 ,true ,1 ,5712 ,5721 ,8937 ,990 ,210 ,0 ,130 ,1330 ,580 ,450 ,0 ,3040 ,150 ,2290 ,5480 
331 ,c31b0ae32d1680d8e9af2871f1168888e7ce07ac ,1 ,104 ,true ,1 ,2912 ,2914 ,8835 ,30 ,30 ,0 ,20 ,80 ,360 ,0 ,0 ,470 ,140 ,2270 ,2880 
332 ,6898f6667a7e8dcbd02d9d1c44f5782f862fdd24 ,1 ,6 ,true ,1 ,3167 ,3169 ,8835 ,170 ,40 ,0 ,20 ,230 ,390 ,0 ,0 ,670 ,130 ,2300 ,3100 
333 ,dd8af8dd0bbe626582c86fb1470100d936522c3a ,1 ,2 ,true ,1 ,2954 ,2957 ,8835 ,90 ,30 ,0 ,20 ,140 ,370 ,0 ,0 ,520 ,130 ,2260 ,2910 
334 ,d90aed40a0a27e2b66accce5365959b5a5749304 ,1 ,5 ,true ,1 ,3233 ,3235 ,8838 ,190 ,40 ,0 ,20 ,250 ,390 ,0 ,0 ,690 ,150 ,2330 ,3180 
335 ,04e816a811d59ab78686f2a6039a43a49a77226d ,1 ,3 ,true ,1 ,3169 ,3172 ,8839 ,140 ,30 ,0 ,10 ,180 ,370 ,10 ,0 ,700 ,130 ,2290 ,3120 
336 ,871b215e73e77863106dd17d2a9721b475d85df8 ,5 ,145 ,true ,1 ,6388 ,6424 ,8956 ,1090 ,140 ,10 ,80 ,1320 ,670 ,310 ,0 ,3840 ,110 ,2120 ,6070 
337 ,3ef77435e08e671b9ab0d191b9d7954a37312436 ,1 ,7 ,true ,1 ,3268 ,3270 ,8959 ,110 ,40 ,0 ,30 ,180 ,420 ,20 ,0 ,630 ,160 ,2440 ,3230 
338 ,6777fcf3a54dce7b26d8fa17e8dd8fe99c4a9186 ,1 ,2 ,true ,1 ,3221 ,3223 ,8959 ,130 ,30 ,0 ,20 ,180 ,400 ,10 ,0 ,630 ,150 ,2370 ,3150 
339 ,cbdd248394affb4a8fb8986f5b45b1dd2a56a608 ,1 ,7 ,true ,1 ,3045 ,3048 ,8960 ,110 ,30 ,0 ,10 ,150 ,360 ,10 ,0 ,530 ,130 ,2340 ,3000 
340 ,89167f3723caea644bf91f6d959b84f4f83a8f47 ,1 ,2 ,true ,1 ,2965 ,2967 ,8960 ,90 ,30 ,0 ,20 ,140 ,360 ,10 ,0 ,510 ,130 ,2280 ,2920 
341 ,c5209b4fb4e83cfe8530d7bfe7be07fa2a524845 ,1 ,27 ,true ,1 ,3163 ,3164 ,8967 ,150 ,30 ,0 ,20 ,200 ,360 ,40 ,0 ,600 ,140 ,2380 ,3120 
342 ,6727e4adfdd8bdb689d11db1b1579cf3622356b4 ,1 ,5 ,true ,1 ,3102 ,3103 ,8970 ,110 ,30 ,0 ,10 ,150 ,370 ,0 ,0 ,580 ,130 ,2320 ,3030 
343 ,7958ac37879e8d4c8200f4d177f1b3b932b3f587 ,1 ,1 ,true ,1 ,3128 ,3129 ,8971 ,40 ,30 ,0 ,20 ,90 ,350 ,10 ,0 ,450 ,130 ,2520 ,3100 
344 ,1a3bdd0c11fc64ba8b9b5a63cd87f1fcf5ca20f9 ,1 ,15 ,true ,1 ,4088 ,4091 ,8984 ,210 ,30 ,0 ,30 ,270 ,430 ,0 ,0 ,1470 ,130 ,2390 ,3990 
345 ,6d9c5ace98623e47fa09863350b154b7123df2fc ,2 ,13 ,true ,1 ,3354 ,3357 ,8991 ,170 ,60 ,0 ,40 ,270 ,410 ,0 ,0 ,690 ,130 ,2390 ,3210 
